Ass_GCD/gcd.vcd
$date
    Apr  4, 2022  16:29:47
$end
$version
    TOOL:	ncsim(64)	15.20-s051
$end
$timescale
    1 ns
$end

$scope module GCD_test $end
$var reg      16 !    data_in [15:0] $end
$var reg       1 "    clk  $end
$var reg       1 #    start  $end
$var wire      1 $    done  $end
$var reg      16 %    A [15:0] $end
$var reg      16 &    B [15:0] $end
$var wire      1 '    sel_in  $end
$var wire      1 (    sel2  $end
$var wire      1 )    sel1  $end
$var wire      1 *    ldB  $end
$var wire      1 +    ldA  $end
$var wire      1 ,    eq  $end
$var wire      1 -    lt  $end
$var wire      1 .    gt  $end

$scope module DP $end
$var wire      1 +    ldA  $end
$var wire      1 *    ldB  $end
$var wire      1 )    sel1  $end
$var wire      1 (    sel2  $end
$var wire      1 '    sel_in  $end
$var wire      1 /    clk  $end
$var wire     16 0    data_in [15:0] $end
$var wire      1 .    gt  $end
$var wire      1 -    lt  $end
$var wire      1 ,    eq  $end
$var wire     16 1    Aout [15:0] $end
$var wire     16 2    Bout [15:0] $end
$var wire     16 3    X [15:0] $end
$var wire     16 4    Y [15:0] $end
$var wire     16 5    Bus [15:0] $end
$var wire     16 6    Subout [15:0] $end

$scope module A $end
$var wire     16 5    data_in [15:0] $end
$var wire      1 +    load  $end
$var wire      1 /    clk  $end
$var reg      16 7    data_out [15:0] $end
$upscope $end


$scope module B $end
$var wire     16 5    data_in [15:0] $end
$var wire      1 *    load  $end
$var wire      1 /    clk  $end
$var reg      16 8    data_out [15:0] $end
$upscope $end


$scope module MUX_in1 $end
$var wire     16 1    in0 [15:0] $end
$var wire     16 2    in1 [15:0] $end
$var wire      1 )    sel  $end
$var wire     16 3    out [15:0] $end
$upscope $end


$scope module MUX_in2 $end
$var wire     16 1    in0 [15:0] $end
$var wire     16 2    in1 [15:0] $end
$var wire      1 (    sel  $end
$var wire     16 4    out [15:0] $end
$upscope $end


$scope module MUX_load $end
$var wire     16 6    in0 [15:0] $end
$var wire     16 0    in1 [15:0] $end
$var wire      1 '    sel  $end
$var wire     16 5    out [15:0] $end
$upscope $end


$scope module SB $end
$var wire     16 3    in1 [15:0] $end
$var wire     16 4    in2 [15:0] $end
$var reg      16 9    out [15:0] $end
$upscope $end


$scope module COMP $end
$var wire     16 1    data1 [15:0] $end
$var wire     16 2    data2 [15:0] $end
$var wire      1 -    lt  $end
$var wire      1 .    gt  $end
$var wire      1 ,    eq  $end
$upscope $end

$upscope $end


$scope module CON $end
$var wire      1 :    clk  $end
$var wire      1 -    lt  $end
$var wire      1 .    gt  $end
$var wire      1 ,    eq  $end
$var wire      1 ;    start  $end
$var reg       1 <    ldA  $end
$var reg       1 =    ldB  $end
$var reg       1 >    sel1  $end
$var reg       1 ?    sel2  $end
$var reg       1 @    sel_in  $end
$var reg       1 A    done  $end
$var reg       3 B    state [2:0] $end
$var parameter  3 C    s0  $end
$var parameter  3 D    s1  $end
$var parameter  3 E    s2  $end
$var parameter  3 F    s3  $end
$var parameter  3 G    s4  $end
$var parameter  3 H    s5  $end
$upscope $end

$upscope $end

$enddefinitions $end
$dumpvars
b101 H
b100 G
b11 F
b10 E
b1 D
b0 C
bx !
0"
x#
x$
bx %
bx &
x'
x(
x)
x*
x+
x,
x-
x.
0/
bx 0
bx 1
bx 2
bx 3
bx 4
bx 5
bx 6
bx 7
bx 8
bx 9
0:
x;
x<
x=
x>
x?
x@
xA
bx B
$end
#3
1#
1;
#5
1"
1:
1/
b0 B
1@
1<
0=
0A
0$
0*
1+
1'
#10
0"
0:
0/
#12
b10001111 !
b10001111 0
b10001111 5
#15
1"
1:
1/
b1 B
b10001111 7
0<
1=
1*
0+
b10001111 1
#20
0"
0:
0/
#22
b1001110 !
b1001110 0
b1001110 5
#25
1"
1:
1/
b10 B
b1001110 8
b1001110 2
b0xx00111x 3
b0xx00111x 4
0-
1.
0,
#30
0"
0:
0/
#35
1"
1:
1/
#37
b100 B
0>
1?
0@
0'
1(
0)
b10001111 3
b1001110 4
bx 5
b1000001 9
b1000001 6
b1000001 5
#38
1<
0=
0*
1+
#40
0"
0:
0/
#45
1"
1:
1/
b1000001 7
b1000001 1
b1000001 3
1-
0.
b1111111111110011 9
b1111111111110011 6
b1111111111110011 5
#47
b11 B
1>
0?
0(
1)
b1001110 3
b1000001 4
b1101 9
b1101 6
b1101 5
#48
0<
1=
1*
0+
#50
0"
0:
0/
#55
1"
1:
1/
b1101 8
b1101 2
b1101 3
0-
1.
b1111111111001100 9
b1111111111001100 6
b1111111111001100 5
#57
b100 B
0>
1?
1(
0)
b1000001 3
b1101 4
b110100 9
b110100 6
b110100 5
#58
1<
0=
0*
1+
#60
0"
0:
0/
#65
1"
1:
1/
b110100 7
b110100 1
b110100 3
b100111 9
b100111 6
b100111 5
#70
0"
0:
0/
#75
1"
1:
1/
b100111 7
b100111 1
b100111 3
b11010 9
b11010 6
b11010 5
#80
0"
0:
0/
#85
1"
1:
1/
b11010 7
b11010 1
b11010 3
b1101 9
b1101 6
b1101 5
#90
0"
0:
0/
#95
1"
1:
1/
b1101 7
b1101 1
b1101 3
0.
1,
b0 9
b0 6
b0 5
#97
b101 B
1A
0?
0<
0+
0(
1$
